<svg width="79" height="79" viewBox="0 0 79 79" fill="none" xmlns="http://www.w3.org/2000/svg">
<path d="M59.9739 35.22L57.9739 34.12L39.9739 24.12H39.7539C39.6313 24.0682 39.504 24.028 39.3739 24H38.6339C38.4973 24.028 38.3634 24.0682 38.2339 24.12H38.0139L20.0139 34.12C19.7061 34.2944 19.4501 34.5474 19.272 34.8531C19.0938 35.1588 19 35.5062 19 35.86C19 36.2138 19.0938 36.5612 19.272 36.8669C19.4501 37.1726 19.7061 37.4256 20.0139 37.6L24.9939 40.36V49.84C24.9939 51.4313 25.626 52.9574 26.7513 54.0826C27.8765 55.2079 29.4026 55.84 30.9939 55.84H46.9939C48.5852 55.84 50.1113 55.2079 51.2365 54.0826C52.3618 52.9574 52.9939 51.4313 52.9939 49.84V40.36L56.9939 38.12V43.84C56.9939 44.3704 57.2046 44.8791 57.5797 45.2542C57.9548 45.6293 58.4635 45.84 58.9939 45.84C59.5243 45.84 60.033 45.6293 60.4081 45.2542C60.7832 44.8791 60.9939 44.3704 60.9939 43.84V36.96C60.9933 36.6056 60.8985 36.2577 60.7193 35.952C60.5401 35.6463 60.2828 35.3937 59.9739 35.22V35.22ZM48.9939 49.84C48.9939 50.3704 48.7832 50.8791 48.4081 51.2542C48.033 51.6293 47.5243 51.84 46.9939 51.84H30.9939C30.4635 51.84 29.9548 51.6293 29.5797 51.2542C29.2046 50.8791 28.9939 50.3704 28.9939 49.84V42.58L38.0139 47.58L38.3139 47.7H38.4939C38.6599 47.7209 38.8279 47.7209 38.9939 47.7C39.1599 47.7209 39.3279 47.7209 39.4939 47.7H39.6739C39.7801 47.6776 39.8816 47.637 39.9739 47.58L48.9939 42.58V49.84ZM38.9939 43.56L25.1139 35.84L38.9939 28.12L52.8739 35.84L38.9939 43.56Z" fill="#6200EA"/>
</svg>
