<svg width="79" height="79" viewBox="0 0 79 79" fill="none" xmlns="http://www.w3.org/2000/svg">
<path d="M57 34.9983C57.5304 34.9983 58.0391 34.7876 58.4142 34.4125C58.7893 34.0374 59 33.5287 59 32.9983V26.9983C59 26.5786 58.8678 26.1696 58.6223 25.8293C58.3767 25.489 58.0303 25.2346 57.632 25.1023L39.632 19.1023C39.2217 18.9659 38.7783 18.9659 38.368 19.1023L20.368 25.1023C19.9697 25.2346 19.6233 25.489 19.3777 25.8293C19.1322 26.1696 19 26.5786 19 26.9983V32.9983C19 33.5287 19.2107 34.0374 19.5858 34.4125C19.9609 34.7876 20.4696 34.9983 21 34.9983H23V49.3663C21.8334 49.7772 20.8226 50.5392 20.1064 51.5476C19.3901 52.556 19.0037 53.7614 19 54.9983V58.9983C19 59.5287 19.2107 60.0374 19.5858 60.4125C19.9609 60.7876 20.4696 60.9983 21 60.9983H57C57.5304 60.9983 58.0391 60.7876 58.4142 60.4125C58.7893 60.0374 59 59.5287 59 58.9983V54.9983C58.9963 53.7614 58.6099 52.556 57.8936 51.5476C57.1774 50.5392 56.1666 49.7772 55 49.3663V34.9983H57ZM55 56.9983H23V54.9983C23.0005 54.468 23.2114 53.9596 23.5864 53.5846C23.9613 53.2097 24.4697 52.9988 25 52.9983H53C53.5303 52.9988 54.0387 53.2097 54.4136 53.5846C54.7886 53.9596 54.9995 54.468 55 54.9983V56.9983ZM27 48.9983V34.9983H31V48.9983H27ZM35 48.9983V34.9983H43V48.9983H35ZM47 48.9983V34.9983H51V48.9983H47ZM23 30.9983V28.4383L39 23.1063L55 28.4403V30.9983H23Z" fill="#6200EA"/>
</svg>
